{
  "users": [
    {
      "username": "Elf111",
      "email": "elf@example.com",
      "password": "awdnajkfnkefnks",
      "id": 1
    },
    {
      "username": "Elf2",
      "email": "elf2@example.com",
      "password": "elf2password",
      "id": 2,
      "old_password": "1234",
      "new_password": "12345"
    },
    {
      "email": "aaa@http",
      "password": "111",
      "username": "c1",
      "id": 3
    },
    {
      "description": "",
      "location": "",
      "id": 4
    },
    {
      "email": "e2etest@example.com",
      "password": "1234",
      "username": "e2etest",
      "id": 5
    }
  ],
  "meetings": [
    {
      "userId": 1,
      "hostId": 1,
      "hostname": "Elf111",
      "id": 1,
      "vote": true,
      "hash_id": "ABDFA3B",
      "title": "The New Weekly Meeting",
      "mode": "weekly",
      "description": "The meetings will last for about 1 hour.",
      "meeting_link": "https://meet.google.com/uro-dkkz-brc",
      "location": "EC321",
      "final_slots": [
        {
          "day": 1,
          "hour": 12,
          "minute": 30,
          "date": null
        },
        {
          "day": 1,
          "hour": 13,
          "minute": 0,
          "date": null
        }
      ]
    },
    {
      "userId": 1,
      "hostId": 2,
      "hostname": "Elf2",
      "id": 2,
      "vote": true,
      "hash_id": "ABDFA5B",
      "title": "The 5th Meeting",
      "mode": "weekly",
      "description": "The meetings will last for about 1 hour.",
      "meeting_link": "https://meet.google.com/uro-dkkz-brc",
      "location": "EC325",
      "final_slots": [
        {
          "day": 1,
          "hour": 12,
          "minute": 30,
          "date": null
        },
        {
          "day": 1,
          "hour": 13,
          "minute": 0,
          "date": null
        }
      ]
    },
    {
      "userId": 2,
      "hostId": 1,
      "hostname": "Elf111",
      "id": 3,
      "vote": true,
      "hash_id": "ABDFA3B",
      "title": "The New Weekly Meeting",
      "mode": "weekly",
      "description": "The meetings will last for about 1 hour.",
      "meeting_link": "https://meet.google.com/uro-dkkz-brc",
      "location": "EC321",
      "final_slots": [
        {
          "day": 1,
          "hour": 12,
          "minute": 30,
          "date": null
        },
        {
          "day": 1,
          "hour": 13,
          "minute": 0,
          "date": null
        }
      ]
    },
    {
      "userId": 2,
      "hostId": 2,
      "hostname": "Elf2",
      "id": 4,
      "vote": true,
      "hash_id": "ABDFA5B",
      "title": "The 5th Meeting",
      "mode": "weekly",
      "description": "The meetings will last for about 1 hour.",
      "meeting_link": "https://meet.google.com/uro-dkkz-brc",
      "location": "EC325",
      "final_slots": [
        {
          "day": 1,
          "hour": 12,
          "minute": 30,
          "date": null
        },
        {
          "day": 1,
          "hour": 13,
          "minute": 0,
          "date": null
        }
      ]
    }
  ],
  "events": [
    {
      "userId": 1,
      "events": [
        {
          "id": 3,
          "name": "The New Weekly Meeting",
          "slots": [
            {
              "day": 1,
              "hour": 12,
              "minute": 30,
              "date": null
            },
            {
              "day": 1,
              "hour": 13,
              "minute": 0,
              "date": null
            }
          ]
        },
        {
          "id": 6,
          "name": "The New Weekly Meeting 2",
          "slots": [
            {
              "day": 1,
              "hour": 12,
              "minute": 30,
              "date": null
            },
            {
              "day": 1,
              "hour": 13,
              "minute": 0,
              "date": null
            }
          ]
        }
      ]
    },
    {
      "userId": 2,
      "events": [
        {
          "id": 3,
          "name": "The New Weekly Meeting",
          "slots": [
            {
              "day": 1,
              "hour": 12,
              "minute": 30,
              "date": null
            },
            {
              "day": 1,
              "hour": 13,
              "minute": 0,
              "date": null
            }
          ]
        },
        {
          "id": 6,
          "name": "The New Weekly Meeting 2",
          "slots": [
            {
              "day": 1,
              "hour": 12,
              "minute": 30,
              "date": null
            },
            {
              "day": 1,
              "hour": 13,
              "minute": 0,
              "date": null
            }
          ]
        }
      ]
    }
  ],
  "hosts": [
    {
      "host_name": "Elf111",
      "id": 1,
      "userId": 1,
      "hash_id": "ABDFA3B"
    },
    {
      "host_name": "Elf2",
      "id": 2,
      "userId": 2,
      "hash_id": "ABDFA5B"
    }
  ],
  "participate": {
    "participate": true
  },
  "vote": [
      {
          "day": 1,
          "hour": 12,
          "minute": 30,
          "date": null
      },
      {
          "day": 1,
          "hour": 13,
          "minute": 0,
          "date": null
      }
  ]
}
